<?xml version="1.0" standalone="no"?>
<!DOCTYPE svg PUBLIC "-//W3C//DTD SVG 20010904//EN"
 "http://www.w3.org/TR/2001/REC-SVG-20010904/DTD/svg10.dtd">
<svg version="1.0" xmlns="http://www.w3.org/2000/svg"
 width="1600.000000pt" height="1600.000000pt" viewBox="0 0 1600.000000 1600.000000"
 preserveAspectRatio="xMidYMid meet">
<metadata>
Created by potrace 1.11, written by Peter Selinger 2001-2013
</metadata>
<g transform="translate(0.000000,1600.000000) scale(0.100000,-0.100000)"
fill="#000000" stroke="none">
<path d="M10827 14114 c-1 -1 -54 -4 -117 -8 -325 -18 -634 -84 -948 -202
-126 -47 -316 -138 -449 -215 -675 -388 -1187 -1012 -1433 -1749 -38 -112 -83
-279 -95 -350 -3 -19 -10 -51 -15 -70 -4 -19 -14 -75 -20 -125 -7 -49 -14 -98
-16 -108 -7 -38 -18 -257 -18 -357 0 -105 13 -350 19 -360 2 -3 6 -29 9 -59 5
-46 11 -83 31 -196 2 -11 8 -40 13 -64 l10 -43 -124 6 c-68 4 -134 9 -147 11
-12 2 -62 6 -111 10 -50 4 -97 8 -105 10 -9 1 -47 6 -86 9 -75 8 -315 40 -405
56 -30 5 -71 11 -90 14 -19 3 -60 10 -90 16 -30 6 -68 13 -85 16 -16 2 -37 7
-45 9 -8 2 -31 7 -50 10 -109 19 -583 133 -685 165 -16 5 -84 26 -150 46 -819
246 -1633 631 -2365 1117 -151 101 -305 209 -395 277 -33 25 -98 75 -145 110
-47 36 -87 67 -90 70 -3 3 -41 35 -85 70 -278 225 -665 586 -906 846 -94 102
-296 331 -344 391 -27 35 -52 63 -55 63 -3 0 -10 -9 -15 -19 -245 -483 -322
-717 -389 -1171 -22 -145 -29 -530 -13 -699 7 -75 31 -254 42 -306 71 -352
182 -657 347 -953 46 -83 140 -235 155 -250 7 -8 18 -23 24 -35 14 -26 140
-188 188 -242 110 -122 221 -234 311 -312 24 -21 51 -45 60 -53 8 -9 69 -55
135 -104 66 -49 124 -93 128 -96 5 -4 -9 -6 -30 -5 -142 10 -221 16 -238 20
-11 2 -40 7 -65 10 -56 6 -102 14 -187 30 -252 48 -546 152 -815 286 l-97 48
5 -131 c2 -72 6 -152 9 -177 16 -155 16 -153 40 -301 109 -652 502 -1354 1006
-1796 103 -91 117 -102 200 -166 353 -268 827 -490 1216 -569 35 -7 60 -16 55
-20 -18 -17 -176 -48 -487 -94 -85 -13 -531 -13 -640 0 -145 17 -202 25 -248
35 -20 4 -37 7 -37 6 0 -7 53 -153 80 -221 32 -83 151 -326 197 -405 183 -316
474 -654 753 -875 161 -128 278 -208 447 -304 92 -52 290 -148 343 -166 3 -1
14 -5 25 -10 147 -60 414 -142 525 -160 19 -3 69 -12 110 -20 41 -8 100 -17
130 -20 30 -3 62 -8 70 -10 8 -2 74 -7 145 -10 121 -7 145 -10 134 -18 -145
-118 -581 -411 -739 -497 -30 -16 -80 -44 -110 -61 -60 -35 -358 -185 -430
-217 -129 -57 -173 -77 -260 -111 -150 -61 -176 -70 -329 -123 -300 -101 -674
-198 -943 -243 -18 -3 -58 -10 -88 -15 -30 -5 -75 -12 -100 -15 -25 -3 -56 -7
-70 -10 -22 -3 -55 -7 -170 -20 -39 -5 -142 -14 -210 -20 -317 -27 -814 -21
-1120 11 -77 8 -120 11 -120 8 0 -3 271 -167 390 -236 282 -163 595 -318 915
-455 72 -31 144 -62 162 -69 90 -40 365 -141 558 -205 312 -105 779 -229 1035
-276 13 -2 53 -10 90 -18 64 -13 331 -58 420 -70 25 -3 52 -8 60 -10 8 -2 42
-7 75 -10 33 -3 71 -8 85 -10 41 -6 139 -16 310 -30 36 -4 83 -8 105 -10 256
-25 1154 -26 1365 0 19 2 73 7 120 10 47 4 101 8 120 11 19 2 64 6 100 9 36 3
81 7 100 10 19 2 91 12 160 20 69 9 136 18 150 20 134 21 308 51 414 72 71 13
139 27 150 29 12 2 35 7 51 11 17 4 32 7 35 8 3 1 19 4 35 8 17 4 39 9 50 11
36 7 308 77 380 97 181 51 630 196 680 219 11 5 81 32 155 61 74 28 153 60
175 69 22 10 69 30 105 45 228 94 638 301 905 457 638 373 1198 805 1734 1338
163 163 214 215 346 361 66 72 210 241 260 304 22 28 42 52 45 55 9 9 144 181
207 265 248 330 506 732 728 1135 43 79 261 515 292 585 12 28 34 77 48 110
14 33 30 67 34 76 17 30 123 293 183 453 130 347 285 858 353 1166 2 8 13 60
25 115 12 55 23 109 26 120 28 128 88 482 109 645 3 25 8 56 10 70 2 14 7 57
10 95 3 39 8 81 10 95 4 23 7 54 20 205 16 191 20 340 20 691 l0 392 125 93
c69 52 130 99 135 105 6 6 33 28 60 50 45 35 131 108 255 219 171 152 475 474
634 670 31 39 63 77 69 85 7 9 33 42 57 75 25 33 47 62 51 65 3 3 27 37 54 75
28 39 53 75 58 80 4 6 25 36 47 67 l39 57 -47 -19 c-26 -10 -101 -41 -167 -68
-245 -101 -732 -254 -915 -289 -13 -2 -60 -12 -105 -23 -44 -10 -97 -21 -117
-24 -21 -3 -57 -10 -80 -15 -24 -5 -61 -12 -83 -15 -22 -4 -65 -11 -95 -16
-30 -5 -75 -12 -100 -15 -25 -3 -57 -8 -72 -11 -16 -2 -28 -2 -28 0 0 2 48 36
108 76 97 67 219 156 232 170 3 3 30 25 60 49 157 126 432 429 573 631 151
218 330 575 391 781 l15 50 -32 -19 c-136 -82 -408 -223 -569 -296 -32 -14
-82 -37 -110 -50 -214 -97 -737 -278 -898 -311 -8 -2 -49 -12 -90 -23 -41 -11
-130 -32 -197 -47 l-121 -27 -74 74 c-364 360 -750 599 -1243 768 -97 33 -260
78 -350 95 -101 20 -188 34 -240 40 -33 4 -71 8 -85 11 -48 8 -396 23 -403 18z"/>
</g>
</svg>
